Customizing clean_metadata()
…
You can omit files using the subset and
subset_type arguments.

To keep only certain files, use the default
subset_type = "keep". To omit certain files, use
subset_type = "omit".

To keep only files with the “a” prefix (note that ^
means ‘at the start’)

clean_metadata(project_files = example_files, subset = "^a")
#> Extracting ARU info...
#> Extracting Dates and Times...
#> # A tibble: 14 × 11
#>   file_name     type  path  aru_id manufacturer model aru_type site_id tz_offset
#>   <chr>         <chr> <chr> <chr>  <chr>        <chr> <chr>    <chr>   <chr>    
#> 1 P01_1_202005… wav   a_BA… BARLT… Frontier La… BAR-… BARLT    P01_1   -0400    
#> 2 P01_1_202005… wav   a_BA… BARLT… Frontier La… BAR-… BARLT    P01_1   -0400    
#> 3 P02_1_202005… wav   a_S4… S4A01… Wildlife Ac… Song… SongMet… P02_1   <NA>     
#> 4 P02_1_202005… wav   a_S4… S4A01… Wildlife Ac… Song… SongMet… P02_1   <NA>     
#> # ℹ 10 more rows
#> # ℹ 2 more variables: date_time <dttm>, date <date>

To omit all files with the “a” prefix

clean_metadata(project_files = example_files, subset = "^a", subset_type = "omit")
#> Extracting ARU info...
#> Extracting Dates and Times...
#> # A tibble: 28 × 11
#>   file_name     type  path  aru_id manufacturer model aru_type site_id tz_offset
#>   <chr>         <chr> <chr> <chr>  <chr>        <chr> <chr>    <chr>   <chr>    
#> 1 P01_1_202005… wav   j_BA… BARLT… Frontier La… BAR-… BARLT    P01_1   -0400    
#> 2 P01_1_202005… wav   j_BA… BARLT… Frontier La… BAR-… BARLT    P01_1   -0400    
#> 3 P02_1_202005… wav   j_S4… S4A01… Wildlife Ac… Song… SongMet… P02_1   <NA>     
#> 4 P02_1_202005… wav   j_S4… S4A01… Wildlife Ac… Song… SongMet… P02_1   <NA>     
#> # ℹ 24 more rows
#> # ℹ 2 more variables: date_time <dttm>, date <date>
…
